%YAML 1.1
%TAG !u! tag:unity3d.com,2011:
--- !u!74 &7400000
AnimationClip:
  m_ObjectHideFlags: 0
  m_CorrespondingSourceObject: {fileID: 0}
  m_PrefabInstance: {fileID: 0}
  m_PrefabAsset: {fileID: 0}
  m_Name: GhostBoyIdle
  serializedVersion: 6
  m_Legacy: 0
  m_Compressed: 0
  m_UseHighQualityCurve: 1
  m_RotationCurves: []
  m_CompressedRotationCurves: []
  m_EulerCurves: []
  m_PositionCurves: []
  m_ScaleCurves: []
  m_FloatCurves: []
  m_PPtrCurves:
  - curve:
    - time: 0
      value: {fileID: 21300000, guid: d38ae2a63c1b3e54ea404a8888697b84, type: 3}
    - time: 0.083333336
      value: {fileID: 21300000, guid: f79907a6c0ee25b448a00b61748ce602, type: 3}
    - time: 0.16666667
      value: {fileID: 21300000, guid: be8e31e5dc556fd438ddd17aae67d1be, type: 3}
    - time: 0.25
      value: {fileID: 21300000, guid: 4eadc92c3f819ee4ea568d1ec9a2f66f, type: 3}
    - time: 0.33333334
      value: {fileID: 21300000, guid: a1b0daa6e97bc4347b34acf0d071870d, type: 3}
    - time: 0.41666666
      value: {fileID: 21300000, guid: df99466e89b661848947c234b0849bb0, type: 3}
    - time: 0.5
      value: {fileID: 21300000, guid: 1ee6b541e2e6e7f45a1834f06afcdd75, type: 3}
    - time: 0.5833333
      value: {fileID: 21300000, guid: 4465a5162f356bf4390794ef3f59e755, type: 3}
    - time: 0.6666667
      value: {fileID: 21300000, guid: 9f463289921a24240882df5a0523c118, type: 3}
    - time: 0.75
      value: {fileID: 21300000, guid: 9893297a4e79f1046af2cab5638a7aab, type: 3}
    attribute: m_Sprite
    path: 
    classID: 212
    script: {fileID: 0}
  m_SampleRate: 12
  m_WrapMode: 0
  m_Bounds:
    m_Center: {x: 0, y: 0, z: 0}
    m_Extent: {x: 0, y: 0, z: 0}
  m_ClipBindingConstant:
    genericBindings:
    - serializedVersion: 2
      path: 0
      attribute: 0
      script: {fileID: 0}
      typeID: 212
      customType: 23
      isPPtrCurve: 1
    pptrCurveMapping:
    - {fileID: 21300000, guid: d38ae2a63c1b3e54ea404a8888697b84, type: 3}
    - {fileID: 21300000, guid: f79907a6c0ee25b448a00b61748ce602, type: 3}
    - {fileID: 21300000, guid: be8e31e5dc556fd438ddd17aae67d1be, type: 3}
    - {fileID: 21300000, guid: 4eadc92c3f819ee4ea568d1ec9a2f66f, type: 3}
    - {fileID: 21300000, guid: a1b0daa6e97bc4347b34acf0d071870d, type: 3}
    - {fileID: 21300000, guid: df99466e89b661848947c234b0849bb0, type: 3}
    - {fileID: 21300000, guid: 1ee6b541e2e6e7f45a1834f06afcdd75, type: 3}
    - {fileID: 21300000, guid: 4465a5162f356bf4390794ef3f59e755, type: 3}
    - {fileID: 21300000, guid: 9f463289921a24240882df5a0523c118, type: 3}
    - {fileID: 21300000, guid: 9893297a4e79f1046af2cab5638a7aab, type: 3}
  m_AnimationClipSettings:
    serializedVersion: 2
    m_AdditiveReferencePoseClip: {fileID: 0}
    m_AdditiveReferencePoseTime: 0
    m_StartTime: 0
    m_StopTime: 0.8333333
    m_OrientationOffsetY: 0
    m_Level: 0
    m_CycleOffset: 0
    m_HasAdditiveReferencePose: 0
    m_LoopTime: 1
    m_LoopBlend: 0
    m_LoopBlendOrientation: 0
    m_LoopBlendPositionY: 0
    m_LoopBlendPositionXZ: 0
    m_KeepOriginalOrientation: 0
    m_KeepOriginalPositionY: 1
    m_KeepOriginalPositionXZ: 0
    m_HeightFromFeet: 0
    m_Mirror: 0
  m_EditorCurves: []
  m_EulerEditorCurves: []
  m_HasGenericRootTransform: 0
  m_HasMotionFloatCurves: 0
  m_Events: []
